<?xml version="1.0" encoding="UTF-8"?>
<svg width="16px" height="16px" viewBox="0 0 16 16" version="1.1" xmlns="http://www.w3.org/2000/svg" xmlns:xlink="http://www.w3.org/1999/xlink">
    <!-- Generator: Sketch 48.2 (47327) - http://www.bohemiancoding.com/sketch -->
    <title>icon/16px/camera-filled-16px</title>
    <desc>Created with Sketch.</desc>
    <defs>
        <path d="M5.31599998,3.30222225 L5.31599998,2.63111115 C5.31599998,2.26046672 5.61998735,1.96000004 5.9958609,1.96000004 L10.0041391,1.96000004 C10.3796159,1.96000004 10.684,2.25788265 10.684,2.63111115 L10.684,3.30222225 L12.7008904,3.30222225 C13.810491,3.30222225 14.71,4.1992502 14.71,5.29675094 L14.71,12.0454713 C14.71,13.147019 13.8086377,14.04 12.7008904,14.04 L3.29910957,14.04 C2.18950897,14.04 1.28999996,13.142972 1.28999996,12.0454713 L1.28999996,5.29675094 C1.28999996,4.19520316 2.1913623,3.30222225 3.29910957,3.30222225 L5.31599998,3.30222225 Z M8,11.3555555 C9.48233228,11.3555555 10.684,10.1536888 10.684,8.67111111 C10.684,7.18853339 9.48233228,5.98666668 8,5.98666668 C6.51766772,5.98666668 5.31599998,7.18853339 5.31599998,8.67111111 C5.31599998,10.1536888 6.51766772,11.3555555 8,11.3555555 Z M11.355,5.98666668 C11.355,6.35989517 11.655417,6.65777779 12.026,6.65777779 C12.3991667,6.65777779 12.697,6.35731111 12.697,5.98666668 C12.697,5.61343818 12.3965831,5.31555557 12.026,5.31555557 C11.6528333,5.31555557 11.355,5.61602225 11.355,5.98666668 Z M8,10.0133333 C7.25883386,10.0133333 6.65799999,9.41239997 6.65799999,8.67111111 C6.65799999,7.92982225 7.25883386,7.32888889 8,7.32888889 C8.74116614,7.32888889 9.34200001,7.92982225 9.34200001,8.67111111 C9.34200001,9.41239997 8.74116614,10.0133333 8,10.0133333 Z" id="path-1"></path>
    </defs>
    <g id="Symbols" stroke="none" stroke-width="1" fill="none" fill-rule="evenodd">
        <g id="icon/16px/camera-filled">
            <mask id="mask-2" fill="white">
                <use xlink:href="#path-1"></use>
            </mask>
            <use id="Combined-Shape" fill="#42526E" xlink:href="#path-1"></use>
        </g>
    </g>
</svg>