<?xml version="1.0" encoding="UTF-8"?>
<svg width="16px" height="16px" viewBox="0 0 16 16" version="1.1" xmlns="http://www.w3.org/2000/svg" xmlns:xlink="http://www.w3.org/1999/xlink">
    <!-- Generator: Sketch 48.2 (47327) - http://www.bohemiancoding.com/sketch -->
    <title>icon/16px/camera-rotate-16px</title>
    <desc>Created with Sketch.</desc>
    <defs>
        <path d="M5.31599998,3.30222225 L5.31599998,2.63111115 C5.31599998,2.26046672 5.61998735,1.96000004 5.9958609,1.96000004 L10.0041391,1.96000004 C10.3796159,1.96000004 10.684,2.25788265 10.684,2.63111115 L10.684,3.30222225 L12.7008904,3.30222225 C13.810491,3.30222225 14.71,4.1992502 14.71,5.29675094 L14.71,12.0454713 C14.71,13.147019 13.8086377,14.04 12.7008904,14.04 L3.29910957,14.04 C2.18950897,14.04 1.28999996,13.142972 1.28999996,12.0454713 L1.28999996,5.29675094 C1.28999996,4.19520316 2.1913623,3.30222225 3.29910957,3.30222225 L5.31599998,3.30222225 Z M7.99991612,11.950522 C8.37049919,11.950522 8.67091613,11.6500553 8.67091613,11.2794109 C8.67091613,10.9087665 8.37049919,10.6082998 7.99991612,10.6082998 C6.88816692,10.6082998 5.98691611,9.70689975 5.98691611,8.59496646 C5.98691611,7.48303317 6.88816692,6.58163314 7.99991612,6.58163314 C9.00944496,6.58163314 9.84540461,7.32489418 9.99059559,8.29413111 L9.81564214,8.11914869 C9.68546813,7.98828202 9.51369213,7.92251313 9.34191613,7.92251313 C9.17014013,7.92251313 8.99769313,7.98828202 8.86684813,8.11914869 C8.60582913,8.38155313 8.60582913,8.80703757 8.86684813,9.0687709 L10.2068351,10.4083087 C10.3390221,10.5405176 10.5107981,10.6082998 10.6845871,10.6082998 C10.8550211,10.6082998 11.0274681,10.5418598 11.1616681,10.4083087 L12.5003132,9.0687709 C12.7626742,8.80703757 12.7626742,8.38155313 12.5003132,8.11914869 C12.3687971,7.98828202 12.1970211,7.92318425 12.0252451,7.92318425 C11.8541401,7.92318425 11.6823641,7.98828202 11.5515191,8.11914869 L11.3443368,8.32652561 C11.2076056,6.59881504 9.76248748,5.23941093 7.99991612,5.23941093 C6.14700078,5.23941093 4.64491611,6.74174431 4.64491611,8.59496646 C4.64491611,10.4481886 6.14700078,11.950522 7.99991612,11.950522 Z" id="path-1"></path>
    </defs>
    <g id="Symbols" stroke="none" stroke-width="1" fill="none" fill-rule="evenodd">
        <g id="icon/16px/camera-rotate">
            <mask id="mask-2" fill="white">
                <use xlink:href="#path-1"></use>
            </mask>
            <use id="Combined-Shape" fill="#42526E" xlink:href="#path-1"></use>
        </g>
    </g>
</svg>