<?xml version="1.0" encoding="UTF-8"?>
<svg width="16px" height="16px" viewBox="0 0 16 16" version="1.1" xmlns="http://www.w3.org/2000/svg" xmlns:xlink="http://www.w3.org/1999/xlink">
    <!-- Generator: Sketch 48.2 (47327) - http://www.bohemiancoding.com/sketch -->
    <title>icon/16px/chevron-left-16px</title>
    <desc>Created with Sketch.</desc>
    <defs>
        <path d="M10.2061747,5.69776905 C10.5979418,5.30938089 10.5979418,4.67967927 10.2061747,4.29129112 C9.81440756,3.90290296 9.17922758,3.90290296 8.78746047,4.29129112 L5.82205321,7.23112205 C5.39264893,7.66762404 5.39264893,8.35312254 5.82205321,8.77882325 L8.77742865,11.7087089 C9.16919576,12.097097 9.80437574,12.097097 10.1961428,11.7087089 C10.58791,11.3203207 10.58791,10.6906191 10.1961428,10.3022309 L7.87885382,8.00492831 L10.2061747,5.69776905 Z" id="path-1"></path>
    </defs>
    <g id="Symbols" stroke="none" stroke-width="1" fill="none" fill-rule="evenodd">
        <g id="icon/16px/chevron-left">
            <mask id="mask-2" fill="white">
                <use xlink:href="#path-1"></use>
            </mask>
            <use id="chevron-left-small" fill="#3F4F71" xlink:href="#path-1"></use>
        </g>
    </g>
</svg>