<?xml version="1.0" encoding="UTF-8"?>
<svg width="16px" height="16px" viewBox="0 0 16 16" version="1.1" xmlns="http://www.w3.org/2000/svg" xmlns:xlink="http://www.w3.org/1999/xlink">
    <!-- Generator: Sketch 48.2 (47327) - http://www.bohemiancoding.com/sketch -->
    <title>icon/16px/discover-16px</title>
    <desc>Created with Sketch.</desc>
    <defs>
        <path d="M8,15 C4.13400675,15 1,11.8659932 1,8 C1,4.13400675 4.13400675,1 8,1 C11.8659932,1 15,4.13400675 15,8 C15,11.8659932 11.8659932,15 8,15 Z M8,13.4444444 C11.0068836,13.4444444 13.4444444,11.0068836 13.4444444,8 C13.4444444,4.99311636 11.0068836,2.55555556 8,2.55555556 C4.99311636,2.55555556 2.55555556,4.99311636 2.55555556,8 C2.55555556,11.0068836 4.99311636,13.4444444 8,13.4444444 Z M7.1128086,6.58910272 L10.143237,5.07418668 C11.0075186,4.6424561 11.3588242,4.99028762 10.9253725,5.85637062 L9.40976652,8.88698642 C9.31227299,9.08193514 9.07904308,9.314023 8.886339,9.41035608 L5.85591063,10.9252721 C4.99250288,11.3578767 4.64119729,11.0100451 5.07464896,10.1430882 L6.58947131,7.11247238 C6.68691444,6.91752367 6.92010452,6.6854358 7.1128086,6.58910272 Z M8,8.77777778 C8.42955481,8.77777778 8.77777778,8.42955481 8.77777778,8 C8.77777778,7.57044519 8.42955481,7.22222222 8,7.22222222 C7.57044519,7.22222222 7.22222222,7.57044519 7.22222222,8 C7.22222222,8.42955481 7.57044519,8.77777778 8,8.77777778 Z" id="path-1"></path>
    </defs>
    <g id="Symbols" stroke="none" stroke-width="1" fill="none" fill-rule="evenodd">
        <g id="icon/16px/discover">
            <mask id="mask-2" fill="white">
                <use xlink:href="#path-1"></use>
            </mask>
            <use id="Combined-Shape" fill="#42526E" fill-rule="nonzero" xlink:href="#path-1"></use>
        </g>
    </g>
</svg>