<?xml version="1.0" encoding="UTF-8"?>
<svg width="16px" height="16px" viewBox="0 0 16 16" version="1.1" xmlns="http://www.w3.org/2000/svg" xmlns:xlink="http://www.w3.org/1999/xlink">
    <!-- Generator: Sketch 48.2 (47327) - http://www.bohemiancoding.com/sketch -->
    <title>icon/16px/home-circle-16px</title>
    <desc>Created with Sketch.</desc>
    <defs>
        <path d="M5.24324705,8 C5.21508821,8.09219241 5.2,8.19011009 5.2,8.29158812 L5.2,11.2084119 C5.2,11.7478027 5.64823808,12.2 6.20116777,12.2 L9.79883223,12.2 C10.3605774,12.2 10.8,11.7560509 10.8,11.2084119 L10.8,8.29158812 C10.8,8.19053133 10.7842662,8.09253516 10.755058,8 L11.2034235,8 C11.7483795,8 11.8810151,7.68101509 11.4875273,7.28752725 L8.35808964,4.15808964 C8.15951633,3.95951633 7.83967781,3.96032219 7.64191036,4.15808964 L4.51247275,7.28752725 C4.11568263,7.68431737 4.24618252,8 4.79657655,8 L5.24324705,8 Z M8,15 C4.13400677,15 1,11.8659932 1,8 C1,4.13400677 4.13400677,1 8,1 C11.8659932,1 15,4.13400677 15,8 C15,11.8659932 11.8659932,15 8,15 Z M7.06666667,10.462063 C7.06666667,9.9457926 7.4809405,9.52727273 8,9.52727273 C8.51546577,9.52727273 8.93333333,9.94488636 8.93333333,10.462063 L8.93333333,12.2 L7.06666667,12.2 L7.06666667,10.462063 Z" id="path-1"></path>
    </defs>
    <g id="Symbols" stroke="none" stroke-width="1" fill="none" fill-rule="evenodd">
        <g id="icon/16px/home-circle">
            <mask id="mask-2" fill="white">
                <use xlink:href="#path-1"></use>
            </mask>
            <use id="Combined-Shape" fill="#42526E" xlink:href="#path-1"></use>
        </g>
    </g>
</svg>