<?xml version="1.0" encoding="UTF-8"?>
<svg width="16px" height="16px" viewBox="0 0 16 16" version="1.1" xmlns="http://www.w3.org/2000/svg" xmlns:xlink="http://www.w3.org/1999/xlink">
    <!-- Generator: Sketch 48.2 (47327) - http://www.bohemiancoding.com/sketch -->
    <title>icon/16px/image-16px</title>
    <desc>Created with Sketch.</desc>
    <defs>
        <path d="M1.25,3.24197149 C1.25,2.14183602 2.13577271,1.25 3.24197149,1.25 L12.7580285,1.25 C13.858164,1.25 14.75,2.13577271 14.75,3.24197149 L14.75,12.7580285 C14.75,13.858164 13.8642273,14.75 12.7580285,14.75 L3.24197149,14.75 C2.14183602,14.75 1.25,13.8642273 1.25,12.7580285 L1.25,3.24197149 Z M6.875,11.375 L5.75,10.25 L3.5,12.5 L6.875,12.5 L12.5,12.5 L12.5,10.4749998 L10.25,8 L6.875,11.375 Z M5,6.5 C5.82842712,6.5 6.5,5.82842712 6.5,5 C6.5,4.17157288 5.82842712,3.5 5,3.5 C4.17157288,3.5 3.5,4.17157288 3.5,5 C3.5,5.82842712 4.17157288,6.5 5,6.5 Z" id="path-1"></path>
    </defs>
    <g id="Symbols" stroke="none" stroke-width="1" fill="none" fill-rule="evenodd">
        <g id="icon/16px/image">
            <mask id="mask-2" fill="white">
                <use xlink:href="#path-1"></use>
            </mask>
            <use id="image-small" fill="#42526E" xlink:href="#path-1"></use>
        </g>
    </g>
</svg>