<?xml version="1.0" encoding="UTF-8"?>
<svg width="16px" height="16px" viewBox="0 0 16 16" version="1.1" xmlns="http://www.w3.org/2000/svg" xmlns:xlink="http://www.w3.org/1999/xlink">
    <!-- Generator: Sketch 48.2 (47327) - http://www.bohemiancoding.com/sketch -->
    <title>confluence/16px/insert-column-before</title>
    <desc>Created with Sketch.</desc>
    <defs>
        <path d="M6.53271438,9.99346137 L8.00326538,9.99346137 L8.00326538,1.96917784 C8.00326538,1.69769266 8.22334761,1.47761043 8.49483279,1.47761043 C8.76631798,1.47761043 8.98640021,1.69769266 8.98640021,1.96917784 L8.98640021,9.99346137 L11.0139736,9.99346137 L11.0139736,2.00387676 C11.0139736,1.7218358 11.2426129,1.49319642 11.5246539,1.49319642 C11.8066949,1.49319642 12.0353342,1.7218358 12.0353342,2.00387676 L12.0353342,9.99346137 L13.9966069,9.99346137 L13.9966069,1.99489298 C13.9966069,1.71781362 14.2212241,1.49319642 14.4983034,1.49319642 C14.7753828,1.49319642 15,1.71781362 15,1.99489298 L15,9.99346137 L15,10.3934614 C15,10.7248322 14.7313708,10.9934614 14.4,10.9934614 L6.53271438,10.9934614 C6.256572,10.9934614 6.03271438,10.7696037 6.03271438,10.4934614 C6.03271438,10.217319 6.256572,9.99346137 6.53271438,9.99346137 Z M2.97123849,8.52238957 L4.97123849,8.52238957 L4.97123849,14.5223896 L2.97123849,14.5223896 L2.97123849,8.52238957 Z M1,4.49123829 L4.00866818,1.50510177 L7,4.49123829 L5,4.49123829 L5,6.99551918 C5,7.27166155 4.77614237,7.49551918 4.5,7.49551918 L3.5,7.49551918 C3.22385763,7.49551918 3,7.27166155 3,6.99551918 L3,4.50489499 L1,4.49123829 Z" id="path-1"></path>
    </defs>
    <g id="Editor-icons" stroke="none" stroke-width="1" fill="none" fill-rule="evenodd">
        <g id="confluence/16px/insert-column-before">
            <mask id="mask-2" fill="white">
                <use xlink:href="#path-1"></use>
            </mask>
            <use id="Combined-Shape" fill="#3D4D73" xlink:href="#path-1"></use>
        </g>
    </g>
</svg>