<?xml version="1.0" encoding="UTF-8"?>
<svg width="16px" height="16px" viewBox="0 0 16 16" version="1.1" xmlns="http://www.w3.org/2000/svg" xmlns:xlink="http://www.w3.org/1999/xlink">
    <!-- Generator: Sketch 48.2 (47327) - http://www.bohemiancoding.com/sketch -->
    <title>confluence/16px/italic</title>
    <desc>Created with Sketch.</desc>
    <defs>
        <path d="M10.2500942,3.4998116 L8,12.5001884 L10.8654541,12.5001884 C11.1469466,12.5001884 11.3751413,12.7241622 11.3751413,12.9995572 L11.3751413,14.2509138 C11.3751413,14.5267076 11.1526588,14.7502826 10.8654541,14.7502826 L2.88445168,14.7502826 C2.60295922,14.7502826 2.37476449,14.5263088 2.37476449,14.2509138 L2.37476449,12.9995572 C2.37476449,12.7237634 2.59724695,12.5001884 2.88445168,12.5001884 L5.7499058,12.5001884 L8,3.4998116 L5.13454588,3.4998116 C4.85305342,3.4998116 4.6248587,3.27583777 4.6248587,3.00044276 L4.6248587,1.74908622 C4.6248587,1.47329243 4.84734116,1.24971739 5.13454588,1.24971739 L13.1155483,1.24971739 C13.3970408,1.24971739 13.6252355,1.47369122 13.6252355,1.74908622 L13.6252355,3.00044276 C13.6252355,3.27623655 13.402753,3.4998116 13.1155483,3.4998116 L10.2500942,3.4998116 Z" id="path-1"></path>
    </defs>
    <g id="Editor-icons" stroke="none" stroke-width="1" fill="none" fill-rule="evenodd">
        <g id="confluence/16px/italic">
            <mask id="mask-2" fill="white">
                <use xlink:href="#path-1"></use>
            </mask>
            <use id="Combined-Shape" fill="#42526E" xlink:href="#path-1"></use>
        </g>
    </g>
</svg>