<?xml version="1.0" encoding="UTF-8"?>
<svg width="16px" height="16px" viewBox="0 0 16 16" version="1.1" xmlns="http://www.w3.org/2000/svg" xmlns:xlink="http://www.w3.org/1999/xlink">
    <!-- Generator: Sketch 48.2 (47327) - http://www.bohemiancoding.com/sketch -->
    <title>icon/16px/list-16px</title>
    <desc>Created with Sketch.</desc>
    <defs>
        <path d="M1.26375945,12.490827 L1.26375945,11.7423559 L14.7362406,11.7423559 L14.7362406,12.490827 C14.7362406,12.9070782 14.403351,13.2392982 13.992711,13.2392982 L2.00728898,13.2392982 C1.59678892,13.2392982 1.26375945,12.9041962 1.26375945,12.490827 Z M1.26375945,7.25152883 L1.26375945,5.75458648 L14.7362406,5.75458648 L14.7362406,7.25152883 L1.26375945,7.25152883 Z M1.26375945,4.25764414 L1.26375945,3.50917296 C1.26375945,3.09292182 1.59664896,2.76070179 2.00728898,2.76070179 L13.992711,2.76070179 C14.4032111,2.76070179 14.7362406,3.09580375 14.7362406,3.50917296 L14.7362406,4.25764414 L1.26375945,4.25764414 Z M1.26375945,10.2454135 L1.26375945,8.74847117 L14.7362406,8.74847117 L14.7362406,10.2454135 L1.26375945,10.2454135 Z" id="path-1"></path>
    </defs>
    <g id="Symbols" stroke="none" stroke-width="1" fill="none" fill-rule="evenodd">
        <g id="icon/16px/list">
            <mask id="mask-2" fill="white">
                <use xlink:href="#path-1"></use>
            </mask>
            <use id="Combined-Shape" fill="#42526E" fill-rule="nonzero" xlink:href="#path-1"></use>
        </g>
    </g>
</svg>