<?xml version="1.0" encoding="UTF-8"?>
<svg width="16px" height="16px" viewBox="0 0 16 16" version="1.1" xmlns="http://www.w3.org/2000/svg" xmlns:xlink="http://www.w3.org/1999/xlink">
    <!-- Generator: Sketch 48.2 (47327) - http://www.bohemiancoding.com/sketch -->
    <title>confluence/16px/Location</title>
    <desc>Created with Sketch.</desc>
    <defs>
        <path d="M4.625,5 L4.125,5 C3.57271525,5 3.125,4.55228475 3.125,4 L3.125,1.5 C3.125,0.94771525 3.57271525,0.5 4.125,0.5 L6.625,0.5 C7.17728475,0.5 7.625,0.94771525 7.625,1.5 L7.625,4 C7.625,4.55228475 7.17728475,5 6.625,5 L6.125,5 L6.125,6.41824341 C6.125,6.96987152 6.38560486,7.25885773 6.875,7.25885773 L8.375,7.25885773 L8.375,6.75 C8.375,6.19771525 8.82271525,5.75 9.375,5.75 L11.875,5.75 C12.4272847,5.75 12.875,6.19771525 12.875,6.75 L12.875,9.25 C12.875,9.80228475 12.4272847,10.25 11.875,10.25 L9.375,10.25 C8.82271525,10.25 8.375,9.80228475 8.375,9.25 L8.375,8.75338745 L6.875,8.75338745 C6.60151401,8.75338745 6.35118488,8.71959231 6.125,8.65547287 L6.125,11.6682434 C6.125,12.2198715 6.38560486,12.5088577 6.875,12.5088577 L8.375,12.5088577 L8.375,12 C8.375,11.4477153 8.82271525,11 9.375,11 L11.875,11 C12.4272847,11 12.875,11.4477153 12.875,12 L12.875,14.5 C12.875,15.0522847 12.4272847,15.5 11.875,15.5 L9.375,15.5 C8.82271525,15.5 8.375,15.0522847 8.375,14.5 L8.375,14.0033875 L6.875,14.0033875 C5.42414093,14.0033875 4.625,13.052269 4.625,11.6682434 L4.625,5 Z" id="path-1"></path>
    </defs>
    <g id="Editor-icons" stroke="none" stroke-width="1" fill="none" fill-rule="evenodd">
        <g id="confluence/16px/Location">
            <mask id="mask-2" fill="white">
                <use xlink:href="#path-1"></use>
            </mask>
            <use id="Mask" fill="#42526E" fill-rule="nonzero" xlink:href="#path-1"></use>
        </g>
    </g>
</svg>