<?xml version="1.0" encoding="UTF-8"?>
<svg width="16px" height="16px" viewBox="0 0 16 16" version="1.1" xmlns="http://www.w3.org/2000/svg" xmlns:xlink="http://www.w3.org/1999/xlink">
    <!-- Generator: Sketch 48.2 (47327) - http://www.bohemiancoding.com/sketch -->
    <title>confluence/16px/merge-table-cells</title>
    <desc>Created with Sketch.</desc>
    <defs>
        <path d="M2.19999981,2.47499985 L13.8000002,2.47499985 C14.3522849,2.47499985 14.8000002,2.9227151 14.8000002,3.47499985 L14.8000002,12.5250002 C14.8000002,13.0772849 14.3522849,13.5250002 13.8000002,13.5250002 L2.19999981,13.5250002 C1.64771506,13.5250002 1.19999981,13.0772849 1.19999981,12.5250002 L1.19999981,3.47499985 C1.19999981,2.9227151 1.64771506,2.47499985 2.19999981,2.47499985 Z M2.04999983,3.32499987 L2.04999983,5.87499994 L5.44999993,5.87499994 L5.44999993,3.32499987 L2.04999983,3.32499987 Z M2.04999983,6.72499996 L2.04999983,9.27500004 L5.44999993,9.27500004 L5.44999993,6.72499996 L2.04999983,6.72499996 Z M2.04999983,10.1250001 L2.04999983,12.6750001 L5.44999993,12.6750001 L5.44999993,10.1250001 L2.04999983,10.1250001 Z M6.29999995,6.72499996 L6.29999995,12.6750001 L13.9500002,12.6750001 L13.9500002,6.72499996 L6.29999995,6.72499996 Z M6.29999995,3.32499987 L6.29999995,5.87499994 L9.70000005,5.87499994 L9.70000005,3.32499987 L6.29999995,3.32499987 Z M10.5500001,3.32499987 L10.5500001,5.87499994 L13.9500002,5.87499994 L13.9500002,3.32499987 L10.5500001,3.32499987 Z" id="path-1"></path>
    </defs>
    <g id="Editor-icons" stroke="none" stroke-width="1" fill="none" fill-rule="evenodd">
        <g id="confluence/16px/merge-table-cells">
            <mask id="mask-2" fill="white">
                <use xlink:href="#path-1"></use>
            </mask>
            <use id="Combined-Shape" fill="#384765" xlink:href="#path-1"></use>
        </g>
    </g>
</svg>