<?xml version="1.0" encoding="UTF-8"?>
<svg width="16px" height="16px" viewBox="0 0 16 16" version="1.1" xmlns="http://www.w3.org/2000/svg" xmlns:xlink="http://www.w3.org/1999/xlink">
    <!-- Generator: Sketch 48.2 (47327) - http://www.bohemiancoding.com/sketch -->
    <title>icon/16px/notification-16px</title>
    <desc>Created with Sketch.</desc>
    <defs>
        <path d="M3.35992626,12.7709684 C2.70261488,12.113657 2.70261488,11.0473145 3.35992626,10.3900031 L5.74089153,12.7709684 C5.08358016,13.4282798 4.01723763,13.4282798 3.35992626,12.7709684 Z M7.48137799,2.51068291 C8.31122308,1.68167944 9.39860631,1.2667569 10.4859895,1.2667569 C11.3040518,1.2667569 12.1229558,1.5024127 12.8324481,1.97288269 C12.8492806,1.95100037 12.8686381,1.9308013 12.8879955,1.91060223 C13.2204385,1.57900084 13.7582387,1.57900084 14.0898401,1.91060223 C14.4214415,2.24304524 14.4214415,2.78084546 14.0898401,3.11160521 C14.0696411,3.13180428 14.0486004,3.15116173 14.0275597,3.16799428 C15.1225175,4.81842656 14.9432508,7.06388975 13.4889178,8.5173811 L13.1067758,8.8997016 C12.3172185,9.68962764 11.2868701,11.1197273 10.7932942,12.1060583 L9.66287746,14.3650116 C9.45331212,14.7858256 9.01229911,14.8565223 8.67733121,14.522396 L1.47636306,7.32226951 C1.14223679,6.98814324 1.21714167,6.54460534 1.63374747,6.33588163 L3.89317084,5.20640496 C4.88015153,4.71301727 6.31511133,3.6774943 7.09923598,2.8930034 L7.48137799,2.51068291 Z" id="path-1"></path>
    </defs>
    <g id="Symbols" stroke="none" stroke-width="1" fill="none" fill-rule="evenodd">
        <g id="icon/16px/notification">
            <mask id="mask-2" fill="white">
                <use xlink:href="#path-1"></use>
            </mask>
            <use id="Combined-Shape" fill="#42526E" xlink:href="#path-1"></use>
        </g>
    </g>
</svg>