<?xml version="1.0" encoding="UTF-8"?>
<svg width="16px" height="16px" viewBox="0 0 16 16" version="1.1" xmlns="http://www.w3.org/2000/svg" xmlns:xlink="http://www.w3.org/1999/xlink">
    <!-- Generator: Sketch 48.2 (47327) - http://www.bohemiancoding.com/sketch -->
    <title>confluence/16px/number-list</title>
    <desc>Created with Sketch.</desc>
    <defs>
        <path d="M4.06097666,11.8978708 L4.62195331,11.8978708 L4.62195331,13.0198241 L4.06097666,13.0198241 L4.06097666,14.1417774 L1.25609337,14.1417774 L1.25609337,13.0198241 L2.93902334,13.0198241 L2.93902334,11.8978708 L1.25609337,11.8978708 L1.25609337,10.7759174 L4.06097666,10.7759174 L4.06097666,11.8978708 Z M6.74390663,11.3322346 L13.7439066,11.3322346 C14.2961914,11.3322346 14.7439066,11.7799498 14.7439066,12.3322346 C14.7439066,12.8845193 14.2961914,13.3322346 13.7439066,13.3322346 L6.74390663,13.3322346 C6.19162188,13.3322346 5.74390663,12.8845193 5.74390663,12.3322346 C5.74390663,11.7799498 6.19162188,11.3322346 6.74390663,11.3322346 Z M6.74390663,2.54115259 L13.7439066,2.54115259 C14.2961914,2.54115259 14.7439066,2.98886784 14.7439066,3.54115259 C14.7439066,4.09343734 14.2961914,4.54115259 13.7439066,4.54115259 L6.74390663,4.54115259 C6.19162188,4.54115259 5.74390663,4.09343734 5.74390663,3.54115259 C5.74390663,2.98886784 6.19162188,2.54115259 6.74390663,2.54115259 Z M6.74390663,6.94701334 L13.7439066,6.94701334 C14.2961914,6.94701334 14.7439066,7.39472859 14.7439066,7.94701334 C14.7439066,8.49929809 14.2961914,8.94701334 13.7439066,8.94701334 L6.74390663,8.94701334 C6.19162188,8.94701334 5.74390663,8.49929809 5.74390663,7.94701334 C5.74390663,7.39472859 6.19162188,6.94701334 6.74390663,6.94701334 Z M2.37804669,2.98017593 L1.25609337,2.98017593 L1.25609337,1.85822261 L3.5,1.85822261 L3.5,5.22408256 L2.37804669,5.22408256 L2.37804669,2.98017593 Z M1.25609337,6.23402818 L4.06097666,6.23402818 L4.06097666,7.35598149 L3.5,7.35598149 L3.5,7.91695815 L2.37804669,7.91695815 L2.37804669,7.35598149 L1.25609337,7.35598149 L1.25609337,6.23402818 Z M1.25609337,8.47793481 L4.62195331,8.47793481 L4.62195331,9.59988812 L1.25609337,9.59988812 L1.25609337,8.47793481 Z" id="path-1"></path>
    </defs>
    <g id="Editor-icons" stroke="none" stroke-width="1" fill="none" fill-rule="evenodd">
        <g id="confluence/16px/number-list">
            <mask id="mask-2" fill="white">
                <use xlink:href="#path-1"></use>
            </mask>
            <use id="Combined-Shape" fill="#42526E" xlink:href="#path-1"></use>
        </g>
    </g>
</svg>