<?xml version="1.0" encoding="UTF-8"?>
<svg width="16px" height="16px" viewBox="0 0 16 16" version="1.1" xmlns="http://www.w3.org/2000/svg" xmlns:xlink="http://www.w3.org/1999/xlink">
    <!-- Generator: Sketch 48.2 (47327) - http://www.bohemiancoding.com/sketch -->
    <title>icon/16px/person-16px</title>
    <desc>Created with Sketch.</desc>
    <defs>
        <path d="M3.53811761,9.98743056 C3.53811761,8.88980297 4.42638699,8 5.54078461,8 L10.4592154,8 C11.5652578,8 12.4618824,8.90350716 12.4618824,10.0015083 L12.4618824,12.7936231 C12.4618824,15.3258904 3.53811761,15.3258904 3.53811761,12.7936231 C3.53811761,15.3258904 3.53811761,9.98743056 3.53811761,9.98743056 Z M8,7.25635294 C6.35718027,7.25635294 5.02541174,5.92458441 5.02541174,4.28176468 C5.02541174,2.63894494 6.35718027,1.30717642 8,1.30717642 C9.64281973,1.30717642 10.9745883,2.63894494 10.9745883,4.28176468 C10.9745883,5.92458441 9.64281973,7.25635294 8,7.25635294 Z" id="path-1"></path>
    </defs>
    <g id="Symbols" stroke="none" stroke-width="1" fill="none" fill-rule="evenodd">
        <g id="icon/16px/person">
            <mask id="mask-2" fill="white">
                <use xlink:href="#path-1"></use>
            </mask>
            <use id="Combined-Shape" fill="#3F4F71" xlink:href="#path-1"></use>
        </g>
    </g>
</svg>