<?xml version="1.0" encoding="UTF-8"?>
<svg width="16px" height="16px" viewBox="0 0 16 16" version="1.1" xmlns="http://www.w3.org/2000/svg" xmlns:xlink="http://www.w3.org/1999/xlink">
    <!-- Generator: Sketch 48.2 (47327) - http://www.bohemiancoding.com/sketch -->
    <title>icon/16px/person-circle-16px</title>
    <desc>Created with Sketch.</desc>
    <defs>
        <path d="M4.50042,12.3720963 L4.50042,10.458201 C4.50042,9.4904122 5.28372,8.70623 6.25042,8.70623 L9.74972,8.70623 C10.71572,8.70623 11.49972,9.4904122 11.49972,10.458201 L11.49972,12.3719841 C12.780128,11.3457049 13.6,9.76859813 13.6,8 C13.6,4.9072054 11.0927946,2.4 8,2.4 C4.9072054,2.4 2.4,4.9072054 2.4,8 C2.4,9.76866259 3.21993181,11.3458198 4.50042,12.3720963 Z M8,15 C4.13400675,15 1,11.8659932 1,8 C1,4.13400675 4.13400675,1 8,1 C11.8659932,1 15,4.13400675 15,8 C15,11.8659932 11.8659932,15 8,15 Z M8,8 C6.84020203,8 5.9,7.05979797 5.9,5.9 C5.9,4.74020203 6.84020203,3.8 8,3.8 C9.15979797,3.8 10.1,4.74020203 10.1,5.9 C10.1,7.05979797 9.15979797,8 8,8 Z" id="path-1"></path>
    </defs>
    <g id="Symbols" stroke="none" stroke-width="1" fill="none" fill-rule="evenodd">
        <g id="icon/16px/person-circle">
            <mask id="mask-2" fill="white">
                <use xlink:href="#path-1"></use>
            </mask>
            <use id="Combined-Shape" fill="#42526E" xlink:href="#path-1"></use>
        </g>
    </g>
</svg>