<?xml version="1.0" encoding="UTF-8"?>
<svg width="16px" height="16px" viewBox="0 0 16 16" version="1.1" xmlns="http://www.w3.org/2000/svg" xmlns:xlink="http://www.w3.org/1999/xlink">
    <!-- Generator: Sketch 48.2 (47327) - http://www.bohemiancoding.com/sketch -->
    <title>icon/16px/schedule-16px</title>
    <desc>Created with Sketch.</desc>
    <defs>
        <path d="M11.8400972,10.0945985 L11.8400972,9.38996017 C11.8400972,9.01307013 11.5275026,8.69819949 11.1418977,8.69819949 C10.7536044,8.69819949 10.4436982,9.00791129 10.4436982,9.38996017 L10.4436982,10.0945985 L9.73905991,10.0945985 C9.36216988,10.0945985 9.04729924,10.407193 9.04729924,10.792798 C9.04729924,11.1810913 9.35701104,11.4909975 9.73905991,11.4909975 L10.4436982,11.4909975 L10.4436982,12.1956358 C10.4436982,12.5725258 10.7562928,12.8873964 11.1418977,12.8873964 C11.530191,12.8873964 11.8400972,12.5776846 11.8400972,12.1956358 L11.8400972,11.4909975 L12.5447355,11.4909975 C12.9216255,11.4909975 13.2364962,11.1784029 13.2364962,10.792798 C13.2364962,10.4045047 12.9267844,10.0945985 12.5447355,10.0945985 L11.8400972,10.0945985 Z M2.76226479,5.90540153 C2.76380865,7.94190636 2.76350381,11.4869069 2.76350381,11.4869069 C2.76350381,11.4886865 4.89645768,11.4897116 7.01050376,11.4902905 C7.09455402,11.9918084 7.26771105,12.4631217 7.51314073,12.8873964 L2.7593567,12.8873964 C1.99043723,12.8873964 1.36710483,12.2610695 1.36710483,11.4869069 L1.36710483,4.51309306 C1.36710483,3.73962407 1.99165388,3.11260356 2.7593567,3.11260356 L2.76350381,3.11260356 L2.76350381,2.41440407 C2.76350381,2.02899795 3.07629719,1.71620458 3.46170331,1.71620458 C3.84710943,1.71620458 4.1599028,2.02899795 4.1599028,2.41440407 L4.1599028,3.11260356 L9.74549873,3.11260356 L9.74549873,2.41440407 C9.74549873,2.02899795 10.0582921,1.71620458 10.4436982,1.71620458 C10.8291043,1.71620458 11.1418977,2.02899795 11.1418977,2.41440407 L11.1418977,3.11260356 L11.1460448,3.11260356 C11.9149643,3.11260356 12.5382967,3.73893048 12.5382967,4.51309306 L12.5382967,6.84197429 C12.1015466,6.68760527 11.6315549,6.60360642 11.1419449,6.60360102 C11.1419184,6.35770377 11.141901,6.12291211 11.1418899,5.90540153 L2.76226479,5.90540153 Z M11.1418977,14.2837954 C9.21387305,14.2837954 7.65090025,12.7208226 7.65090025,10.792798 C7.65090025,8.86477331 9.21387305,7.30180051 11.1418977,7.30180051 C13.0699224,7.30180051 14.6328952,8.86477331 14.6328952,10.792798 C14.6328952,12.7208226 13.0699224,14.2837954 11.1418977,14.2837954 Z" id="path-1"></path>
    </defs>
    <g id="Symbols" stroke="none" stroke-width="1" fill="none" fill-rule="evenodd">
        <g id="icon/16px/schedule">
            <mask id="mask-2" fill="white">
                <use xlink:href="#path-1"></use>
            </mask>
            <use id="Combined-Shape" fill="#42526E" fill-rule="nonzero" xlink:href="#path-1"></use>
        </g>
    </g>
</svg>