<?xml version="1.0" encoding="UTF-8"?>
<svg width="16px" height="16px" viewBox="0 0 16 16" version="1.1" xmlns="http://www.w3.org/2000/svg" xmlns:xlink="http://www.w3.org/1999/xlink">
    <!-- Generator: Sketch 48.2 (47327) - http://www.bohemiancoding.com/sketch -->
    <title>icon/16px/search-16px</title>
    <desc>Created with Sketch.</desc>
    <defs>
        <path d="M6.999875,10 C5.345875,10 3.999875,8.654 3.999875,7 C3.999875,5.346 5.345875,4 6.999875,4 C8.653875,4 9.999875,5.346 9.999875,7 C9.999875,8.654 8.653875,10 6.999875,10 M13.706875,12.293 L11.167875,9.754 C11.690875,8.964 11.999875,8.019 11.999875,7 C11.999875,4.239 9.761875,2 6.999875,2 C4.237875,2 1.999875,4.239 1.999875,7 C1.999875,9.761 4.237875,12 6.999875,12 C8.018875,12 8.963875,11.692 9.753875,11.168 L12.292875,13.707 C12.487875,13.902 12.743875,14 12.999875,14 C13.255875,14 13.511875,13.902 13.706875,13.707 C14.097875,13.316 14.097875,12.684 13.706875,12.293" id="path-1"></path>
    </defs>
    <g id="Symbols" stroke="none" stroke-width="1" fill="none" fill-rule="evenodd">
        <g id="icon/16px/search">
            <mask id="mask-2" fill="white">
                <use xlink:href="#path-1"></use>
            </mask>
            <use id="search-small" fill="#42526E" xlink:href="#path-1"></use>
        </g>
    </g>
</svg>