<?xml version="1.0" encoding="UTF-8"?>
<svg width="16px" height="16px" viewBox="0 0 16 16" version="1.1" xmlns="http://www.w3.org/2000/svg" xmlns:xlink="http://www.w3.org/1999/xlink">
    <!-- Generator: Sketch 48.2 (47327) - http://www.bohemiancoding.com/sketch -->
    <title>icon/16px/subtask-16px</title>
    <desc>Created with Sketch.</desc>
    <defs>
        <path d="M13.2592402,4.30644453 C14.123356,4.52872601 14.7618803,5.31305083 14.7618803,6.24660398 L14.7618803,12.7586761 C14.7618803,13.8650152 13.8650805,14.7618803 12.7586761,14.7618803 L6.24660398,14.7618803 C5.31309809,14.7618803 4.52873004,14.1233918 4.30644296,13.2592402 L12.2550025,13.2592402 C12.8026771,13.2592402 13.2592402,12.8096277 13.2592402,12.2550025 L13.2592402,4.30644453 Z M1.23811973,3.24132387 C1.23811973,2.13498477 2.13491946,1.23811973 3.24132387,1.23811973 L9.75339602,1.23811973 C10.8597351,1.23811973 11.7566001,2.13491946 11.7566001,3.24132387 L11.7566001,9.75339602 C11.7566001,10.8597351 10.8598004,11.7566001 9.75339602,11.7566001 L3.24132387,11.7566001 C2.13498477,11.7566001 1.23811973,10.8598004 1.23811973,9.75339602 L1.23811973,3.24132387 Z M2.74075979,2.74075979 L2.74075979,10.2539601 L10.2539601,10.2539601 L10.2539601,2.74075979 L2.74075979,2.74075979 Z M4.77466334,5.96609645 L5.74603991,6.93747302 L8.22005654,4.46345639 C8.51346526,4.17004767 8.9891748,4.17004767 9.28258352,4.46345639 C9.57599224,4.75686512 9.57599224,5.23257465 9.28258352,5.52598337 L6.2773034,8.53126349 C5.98389468,8.82467221 5.50818515,8.82467221 5.21477642,8.53126349 L3.71213636,7.02862343 C3.41872764,6.73521471 3.41872764,6.25950517 3.71213636,5.96609645 C4.00554509,5.67268773 4.48125462,5.67268773 4.77466334,5.96609645 Z" id="path-1"></path>
    </defs>
    <g id="Symbols" stroke="none" stroke-width="1" fill="none" fill-rule="evenodd">
        <g id="icon/16px/subtask">
            <mask id="mask-2" fill="white">
                <use xlink:href="#path-1"></use>
            </mask>
            <use id="Combined-Shape" fill="#3F4F71" fill-rule="nonzero" xlink:href="#path-1"></use>
        </g>
    </g>
</svg>