<?xml version="1.0" encoding="UTF-8"?>
<svg width="24px" height="24px" viewBox="0 0 24 24" version="1.1" xmlns="http://www.w3.org/2000/svg" xmlns:xlink="http://www.w3.org/1999/xlink">
    <!-- Generator: Sketch 48.1 (47250) - http://www.bohemiancoding.com/sketch -->
    <title>icon/20px/home-filled</title>
    <desc>Created with Sketch.</desc>
    <defs>
        <path d="M19.0425496,11.879076 L19.0425496,21.4526003 C19.0425496,22.0003767 18.5897999,22.4444372 18.0519686,22.4444372 L14.3468334,22.4444372 L14.3468334,17.4004281 C14.3468334,16.2929366 13.4552504,15.4008631 12.3554271,15.4008631 L11.6425237,15.4008631 C10.5564986,15.4008631 9.65111734,16.2960988 9.65111734,17.4004281 L9.65111734,22.4444372 L5.94598215,22.4444372 C5.39889942,22.4444372 4.95540124,21.999935 4.95540124,21.4526003 L4.95540124,11.879076 L2.42445085,11.879076 C1.87722686,11.879076 1.74981444,11.5628757 2.14324297,11.1694472 L11.6474469,1.66524322 C11.8415907,1.4710994 12.1565279,1.47126724 12.3505039,1.66524322 L21.8547078,11.1694472 C22.246625,11.5613643 22.1229915,11.879076 21.5734999,11.879076 L19.0425496,11.879076 Z" id="path-1"></path>
    </defs>
    <g id="Symbols" stroke="none" stroke-width="1" fill="none" fill-rule="evenodd">
        <g id="icon/20px/home-filled">
            <mask id="mask-2" fill="white">
                <use xlink:href="#path-1"></use>
            </mask>
            <use id="Combined-Shape-Copy" fill="#3F4F71" xlink:href="#path-1"></use>
        </g>
    </g>
</svg>