<?xml version="1.0" encoding="UTF-8"?>
<svg width="24px" height="24px" viewBox="0 0 24 24" version="1.1" xmlns="http://www.w3.org/2000/svg" xmlns:xlink="http://www.w3.org/1999/xlink">
    <!-- Generator: Sketch 48.1 (47250) - http://www.bohemiancoding.com/sketch -->
    <title>icon/20px/pdf</title>
    <desc>Created with Sketch.</desc>
    <defs>
        <path d="M5,5.99406028 C5,4.8927712 5.89706013,4 7.00585866,4 L16.9941413,4 C18.1019465,4 19,4.89451376 19,5.99406028 L19,18.0059397 C19,19.1072288 18.1029399,20 16.9941413,20 L7.00585866,20 C5.89805351,20 5,19.1054862 5,18.0059397 L5,5.99406028 Z M8,9 C8,9.55613518 8.4463856,10 8.99703014,10 L15.0029699,10 C15.5469637,10 16,9.55228475 16,9 C16,8.44386482 15.5536144,8 15.0029699,8 L8.99703014,8 C8.45303631,8 8,8.44771525 8,9 Z M15.5124509,16 C15.7817824,16 16,15.7777733 16,15.5034936 L16,11.4974074 C16,11.2221267 15.7817824,10.9999 15.5124509,10.9999 L13.4885321,10.9999 C13.2182176,10.9999 13,11.2221267 13,11.4974074 L13,15.5034936 C13,15.7777733 13.2182176,16 13.4885321,16 L15.5124509,16 Z M8,12 C8,12.5561352 8.45190985,13 9.0093689,13 L10.9906311,13 C11.5566468,13 12,12.5522847 12,12 C12,11.4438648 11.5480902,11 10.9906311,11 L9.0093689,11 C8.44335318,11 8,11.4477153 8,12 Z M8,15 C8,15.5561352 8.45190985,16 9.0093689,16 L10.9906311,16 C11.5566468,16 12,15.5522847 12,15 C12,14.4438648 11.5480902,14 10.9906311,14 L9.0093689,14 C8.44335318,14 8,14.4477153 8,15 Z" id="path-1"></path>
    </defs>
    <g id="Symbols" stroke="none" stroke-width="1" fill="none" fill-rule="evenodd">
        <g id="icon/20px/pdf">
            <mask id="mask-2" fill="white">
                <use xlink:href="#path-1"></use>
            </mask>
            <use id="Combined-Shape" fill="#42526E" xlink:href="#path-1"></use>
        </g>
    </g>
</svg>