<?xml version="1.0" encoding="UTF-8"?>
<svg width="24px" height="24px" viewBox="0 0 24 24" version="1.1" xmlns="http://www.w3.org/2000/svg" xmlns:xlink="http://www.w3.org/1999/xlink">
    <!-- Generator: Sketch 48.1 (47250) - http://www.bohemiancoding.com/sketch -->
    <title>icon/20px/recent</title>
    <desc>Created with Sketch.</desc>
    <defs>
        <path d="M19,12 C19,8.140375 15.859625,5 12,5 C8.140375,5 5,8.140375 5,12 C5,15.859625 8.140375,19 12,19 C15.859625,19 19,15.859625 19,12 Z M21,12 C21,16.9707 16.9707,21 12,21 C7.0293,21 3,16.9707 3,12 C3,7.0293 7.0293,3 12,3 C16.9707,3 21,7.0293 21,12 Z M15.185,13.771 C15.574,14.16 15.574,14.796 15.185,15.186 C14.796,15.574 14.16,15.574 13.771,15.186 L11.301,12.716 C11.116,12.534 11,12.283 11,12.004 L11,8.004 L11,8.002 L11,8 L11,7 C11,6.448 11.448,6 12,6 C12.552,6 13,6.448 13,7 L13,8 L13,8.002 L13,8.004 L13,11.586 L15.185,13.771 Z" id="path-1"></path>
    </defs>
    <g id="Symbols" stroke="none" stroke-width="1" fill="none" fill-rule="evenodd">
        <g id="icon/20px/recent">
            <mask id="mask-2" fill="white">
                <use xlink:href="#path-1"></use>
            </mask>
            <use id="time" fill="#3F4F71" xlink:href="#path-1"></use>
        </g>
    </g>
</svg>